-124
rt-king-1
todays-13
msgs-5
"mix"-2
150ppermesssubscription-2
four-1
woods-1
gbp5/month-1
bank-1
-message-2
whose-1
paris-4
invaders-1
swap-1
lord-1
rp176781-1
worth-10
@-3
msgrcvd18+-1
61200-1
'-1
chik-1
every-25
month-2
bringing-1
xclusive@clubsaisai-1
tickets-2
we'll-2
prize-63
skills-1
companies-1
upload-1
69888-2
enjoy-6
10k-3
3680-1
specially-6
phones-7
direct-8
horo-2
street-1
txtno-2
10p-10
50/wk-1
goto-4
even-4
textoperator-3
hide-1
150p/tone-4
lookatme-2
+-12
selected-16
new-46
net-10
ever-2
filthyguys-1
med-2
men-2
y87-1
here-6
met-1
active-1
100-10
films-2
84122-1
w111wx-2
auction-10
84128-2
changed-1
eastenders-2
jamz-1
credit-6
i'd-1
n=qjkgighjjgcbl-1
i'm-6
subpoly-3
munsters-2
fantastic-3
txt-2-shop-1
brought-2
62468-2
txt-119
£s-1
would-2
ec2a-5
browse-1
3lp-3
m6-1
call-217
2rcv-1
until-5
hols-2
yahoo-2
award-16
99-1
phone-33
warm-2
adult-2
£4-2
internet/service-1
£1-22
£2-10
must-4
me-21
mf-1
join-13
work-3
install-1
mr-1
my-8
m26-2
drvgsto-1
give-5
want-18
guarantee-1
£900-3
end-11
eng-2
verify-3
travel-2
0a$networks-1
how-6
hot-11
answer-6
ba128nnfwfly150ppm-1
pobox1-1
mobilesvary-2
calls£1/minmobsmore-1
videophones-2
after-3
loyalty-7
1x150p/wk-4
w/question-1
plyr-1
50/msg-2
50pm-1
4goten-1
purchase-2
attempt-14
box61-1
homeowners-3
age16-6
think-2
tulip-2
areyouunique-1
enter-6
1000-5
order-10
fifa-1
89545-2
zed-4
deck-1
over-12
vary-5
kickoff-2
london-1
87575-3
before-4
scoring-1
fit-1
personal-1
max10mins-2
better-1
bcmsfwc1n3xx-1
2morow-1
400-1
wales-1
weeks-5
nokia6600-2
then-8
eurodisinc-1
vouchers-14
break-3
2channel-1
0844-1
0845-2
they-12
yourself-1
rental-6
cnupdates-1
mk45-2
dload-2
notified-1
l-1
detroit-1
arrow-1
each-7
luck-5
24m-1
27/03-1
messages-text-1
2day-4
logo-3
message-21
2309-1
network-15
driving-2
sang-1
open-1
psychic-1
help08714742804-1
sms-20
tomorrow-7
content-11
re-5
laid-4
got-3
web2mobile-1
dracula-2
ntt-9
free-149
standard-4
wanted-1
88039-3
trebles-1
created-1
starts-3
messages-10
days-8
81618-1
pence-2
onto-3
69988-1
cash-balance-6
purpose-3
shinco-1
200-1
already-1
150p/sms-1
camera/video-1
fantasy-3
teletext-1
anyone-1
service-38
backdoor-1
top-13
girls-2
mins&100txt/mth-1
rates-4
too-1
or2stoptxt-3
recent-3
dogs-1
listen-2
txt43-1
update_now-2
win-82050-1
o2fwd-1
helen-1
shortly-2
keyword-1
exorcist-2
girl'-1
feeling-2
mini-1
10th-1
mind-1
t&c-20
£350-5
seem-1
mins-16
tells-1
abroad-1
genuine-2
responsible-1
--41
u-find-5
mix"-1
ringtoneking-1
luxury-1
though-1
uk/reward-1
what-16
regular-1
germany-1
mobs-1
t&csc-1
vouchers-text-1
x-net-1
dob-1
marsms-1
m-7
89105-1
41685-2
points-7
textcomp-2
83600-4
dot-2
//wap-1
1146-1
contacted-4
ringtones-3
ending-5
linerental-4
d=-2
enjoyed-2
xxxmobilemovieclub-2
menu-1
weekends-3
hrs-1
542-3
call2optout/-1
folks-1
83049-1
do-15
doubletxt-1
89555-3
box177-1
avble-1
wedding-1
10ppm-1
nasty-1
8027-1
w/c-1
respond-1
re-schedule-1
reference-3
recieve-1
w4-1
becausethey-1
best-4
pete-1
00-9
draws-1
21/m-1
lots-1
lotr-2
away-2
2optout-3
t-mobile-1
future-3
olympics-1
2morro-1
//www-6
we-32
never-1
terms-6
wk-16
however-1
88600-3
news-7
textpod-4
xchat-4
received-1
receivea-1
//careers-2
country-4
ill-1
e£nd-1
macedonia-1
mobcudb-1
games-9
4403ldnw1a7rw18-1
morefrmmob-1
requests-1
com-34
asked-2
30th-1
movietrivia-2
tone-32
sullivan-1
2nd-12
tons-1
sk38xh-3
250-2
speak-8
"you-1
callfreefone-2
fri-2
been-27
much-1
a£1-1
stadium-1
entered-6
dozens-1
website-1
sextextuk-1
life-3
easy-7
16+-17
£100-17
dave-1
169-1
child-1
80488-5
25p-7
10am-7pm-3
bridal-1
save-2
tcr/w1-3
mymoby-1
n-3
evening-1
slo-2
balance-1
k-2
mistake-1
a21-1
played-2
is-106
it-23
40gb-5
player-10
cant-2
datebox1282essexcm61xn-2
im-4
in-48
if-18
things-1
make-8
tgxxrz-1
8pm-1
big-1
4fil-2
entitled-3
splashmobile-1
action-3
ppm150-1
bloomberg-4
tune-1
kept-3
min-12
charity-6
contact-35
claims-1
the-133
800-6
yours-11
opinions-1
just-57
photo-2
41782-1
thanks-11
87121-3
yes-9
yer-2
yet-2
burns-1
unable-1
had-8
8wp-1
teenager-1
5k-2
has-18
opt-10
babes-2
free-nokia-1
30apr-1
discreet-2
unique-1
gift-10
virgins-1
footy-1
lily-2
3030-4
50-22
wkly-9
4info-3
night-4
savamob-10
www-54
right-1
old-2
people-2
euro2004-5
max£7-2
dear-11
0871-4719-523-1
9996-1
total-1
for-131
str8-1
ice-1
cnl-1
christmas-1
booking-1
who-35
pls-5
posh-1
subscriptions-1
marketing-1
discount-9
club4-1
eye-1
post-2
super-1
asjesus-1
theirs-1
valentines-2
7548-1
plus-6
islands-1
sept-2
xxsp-1
tonights-1
match-4
whats-1
subs-3
presence-1
low-cost-1
sol-3
ppm-3
down-1
69696-2
69698-2
32323-1
wan-2
c52-2
4742-2
voda-3
£250k-1
virgin-1
way-1
jane-1
music-12
was-5
wap-8
b4280703-2
offering-1
offer-21
6wu-1
t&cs/stop-3
polyphonic-2
7250i-4
26th-1
notifications-1
hear-3
removed-1
bluetoothhdset-1
congratulations-11
responding-1
bids-1
maximum-1
tell-10
usher-2
dizzee-1
150-7
153-2
28th-1
inclusive-3
8p/min-1
sale-3
t&cs-14
promised-1
com/enjoy-1
check-2
subscriptn3gbp/wk-1
80160-1
no-44
alerts-1
when-11
replys150-1
topped-1
reality-2
interested-1
0089-1
digital-5
nt-1
£200-7
phoenix-1
surprise-2
welcome-6
140ppm-1
update-11
weekend-2
faster-1
toppoly-1
daily-3
81010-1
time-10
3gbp-1
6230-1
£3/wk-3
pre-book-1
annoncement-1
150ppmsg-1
global-1
24/7mp-1
3ss-1
boltblue-1
txt82228-1
aco&entry41-1
fixedline-2
21st-2
hurry-1
msg/subscription-1
fancies-3
m39m51-1
0-1
charge-6
comuk-5
£3-11
3aj-1
jeri-1
k718-1
call2optout/4qf2-1
choice-3
87131-3
0776xxxxxxx-1
word-20
28days-1
minute-4
cool-1
speciale-1
did-2
posts-1
brother-1
leave-2
p-1
team-2
nos-1
round-1
dis-1
foley-1
-msg-1
videochat-2
porn-4
addamsfa-2
presleys-1
sign-2
cost-18
voucher-13
rentl-2
drinks-2
pobox-9
150p/mt-1
526-1
reply-66
528-1
max6/month-1
satisfy-1
wc1n3xx-3
bloke-1
learn-1
downloaded-1
acl03530150pm-1
upgrade-3
address-4
alone-3
along-1
goals/team-1
wait-2
box-25
bangb-1
300603-1
trial-1
women-1
"polys"-1
434-1
vpod-1
love-9
extra-4
1st-17
4jx-1
hotels-1
prem-1
ntwk-1
visit-5
thedailydraw-1
music-trivia-1
horniest-1
29/03/05-1
live-23
aries-1
msg-17
today-13
club-15
envelope-2
ip4-2
row/w1j6hl-3
18p/txt-1
ibh-2
4mths-3
valued-5
norm150p/tone-3
txt250-1
local-5
quoting-3
gbp4-1
can-21
cam-1
cal-1
following-3
arrive-5
heart-2
crazy-2
months-1
stream-1
uk/games-1
december-3
agent-1
heard-3
450p-1
admirer-7
urawinner-2
4t&-2
nyt-3
1-33
till-3
vodafone-3
145-2
mat-1
strokes-1
aom-2
23g-1
cw25wx-3
membership-1
birthday-1
unclaimed-1
date-7
revealed-2
optout-4
tenants-3
80155-1
sp-6
it-1
st-2
q-4
jorge-shock-1
so-18
subs16+1win150ppmx3-2
hol-1
talk-2
cute-1
approx-1
tkts-4
scammers-1
bootydelious-1
midnight-1
speedchat-2
years-7
vatian-1
still-5
no1-5
***************-1
thank-1
str*-1
220-cm2-1
amazing-2
offers-8
£79-1
£75-3
£71-1
instantly-1
lonely-1
nok-2
matches-7
applausestore-1
feelin-1
toxic-1
ls1-1
not-22
now-139
twilight-2
matched-1
term-2
83435-1
name-8
january-1
drop-2
rock-1
em-1
busty-1
retrieve-2
eg-9
receipt-3
yeah-1
391784-1
year-6
girl-4
tried-9
living-1
18+6*£1-1
space-1
profit-2
83383-2
looking-6
b'tooth*-1
ymca-1
100p/sms-1
correct-4
shows-18
2kbsubject-1
hotmix-1
1131-1
68866-1
e=-2
accommodation-1
card-3
care-4
wan2-1
minapn-1
british-1
thing-1
funky-1
place-4
txttowin-2
150p/mtmsgrcvd18-1
promotion-1
ls15hb-2
prescripiton-1
first-4
blind-2
1225-1
box326-1
24-2
potter-1
one-7
+123-2
xx-4
vote-1
ring-2
60p/min-2
george-2
89034-1
city-3
little-1
valentine's-1
bookmark-1
uks-3
response-1
bahamas-4
fml-2
2-125
types-1
100percent-real-2
friend-6
m60-1
fraction-1
that-20
cup-5
cornwall-1
18+only-3
smith-switch-1
flowers-1
holder-4
than-2
xxuk-1
10-6
12-1
gotto-1
weddingfriend-1
16-20
18-22
transferred-1
subscrition-1
flirtparty-1
r-13
were-3
stockport-2
and-96
20p-6
n-gage-1
sam-3
pro-1
premier-2
monthlysubscription@50p/msg-1
locations-5
sae-11
say-1
mates-7
b4190604-2
ans-5
strt-1
any-13
sat-1
zoe-1
sun0819-1
algarve-2
take-11
xxxxxx-1
wanting-1
channel-1
9yt-1
begin-1
18/11/04-1
p£3-1
price-10
paid-1
crazyin-1
tncs-5
hungry-2
box42wr29c-1
alfie-2
professional-1
shop-6
£1500-3
show-2
box95qu-2
5wq-1
cheap-3
callcost-2
hack-1
5wb-6
superb-1
3650-1
5we-2
92h-2
slow-1
office-1
title-3
true-2
50/pm-2
dick-1
box434sk38wp150ppm18+-1
3-14
only-53
going-4
hockey-1
westlife-1
b4u-1
0871-872-9755-1
get-59
4882-1
age16+£1-1
truly-2
skilgme-3
mmsto-1
nearly-1
awaiting-3
reveal-4
pobox12n146tf15-1
settings-1
84025-3
getstop-2
cumin-1
tenerife-6
racal-1
tscs087147403231winawk-3
stop2stop-1
where-2
xmas-9
login=-2
2stoptx-1
sport-4
conacted-1
review-4
thurs-1
uve-1
enough-2
x29-1
landline-21
between-6
availa-1
150p/mtmsgrcvd18+-1
notice-2
august-2
comp-7
deliveredtomorrow-2
dartboard-1
come-2
21-1
dates-2
5249-2
u’ve-1
mono-1
voicemail-3
contract-1
s-6
comes-2
300%-1
among-1
#150-1
83370-1
poly-10
pole-1
cancel-2
pod-3
3510i-3
marley-1
dorothy@kiefer-1
£5/month-1
subscribed-2
classic-1
informed-2
subscriber-4
champneys-1
stoptxtstop£1-1
ldew-7
500-19
wants-1
win150ppmx3age16-1
shopping-4
box334-1
upd8-1
elvis-1
786-2
tiger-1
300p-2
“harry-1
hardcore-2
careful-1
sound-1
stereophonics-1
these-1
cash-42
cast-1
many-3
07808-1
invited-4
50p-4
abta-2
wire3-1
regalportfolio-1
telephone-1
good-10
return-1
28/5-1
qlynnbv-1
pay-1
mk17-2
tour-2
trip-3
html-1
reminder-1
m263uz-4
cro1327-1
week-37
downloads-2
running-1
3x£150pw-1
88888-1
#5000-2
mobileupd8-10
yhl-1
cash-in-6
eerie-4
costs-1
1winaweek-2
11-1
reward-2
charged-9
summer-4
saristar-1
phone750-1
69969-1
being-3
money-3
hp20-1
logos+musicnews-1
£10-8
6days-2
touch-1
speed-1
weekly-18
blow-1
announcement-4
//img-1
81151-4
310303-1
sorry-3
4-70
450ppw-2
unsubscribed-1
kingdom-1
around-2
2u-1
read-1
lnly-1
dark-1
5/9/03-1
listening-1
lccltd-1
mob-18
walk-1
80608-2
pounds-12
quizclub-1
150p/mtmsg-2
t-11
pdate_now-1
competition-3
lucy-2
tarot-1
thinks-7
daytime-1
provided-3
12mths-2
confirm-1
moon-2
or2optout/hv9d-1
videosounds+2-1
£50-1
o2-3
£54-1
ny-usa-1
football-1
txting-6
asap-6
unkempt-1
&xxx-1
lapdancer-1
credits-7
tv/-1
leadership-1
97n7qp-1
exciting-2
gbp/week-1
on-100
ok-4
package-1
of-67
inviting-1
stop2-1
nothing-2
oz-1
tariffs-2
or-116
3qxj9-2
sara-1
2nite-4
w1t1jy-1
charts-1
6months-1
cost£1-2
operator-10
savamob-member-1
your-162
wamma-1
breath-1
jamster-3
chat80155-1
log-3
her-3
area-7
lionm-1
there-10
hey-5
start-6
lions-1
stars-1
lionp-1
ac/w/icmb3cktz8r7-1
*****up-1
750-9
trying-11
with-67
bt-national-rate-5
they're-1
87077-5
romantic-1
flirt-4
dirty-1
tones-20
dvd-6
la32wu-1
ac-4
ab-1
600-1
ag-1
cinema-3
am-12
8077-1
an-13
£1250-2
as-23
89693-2
at-19
lifetime-2
incorrect-1
again-2
stdtxtrate-1
idiot-1
3100-1
ringtone-19
saturday-3
roses-1
valid-15
5-6
you-192
sufficient-1
85069-2
60p-1
refunded-1
ansr-4
trackmarque-1
important-5
peak-1
missed-1
calls-10
50pmmorefrommobile2bremoved-mobypobox734ls27yf-1
freephone-5
u-111
adam-2
1/2price-1
starting-2
original-1
carlie-1
88877-2
all-19
mobilesdirect-3
forget-2
mandy-1
beware-1
12hrs-12
mp3-3
follow-2
text82228-1
children-2
interflora-2
tv-6
k52-2
31/10/04-1
to-480
un-redeemed-5
expired-1
winnersclub-1
tb-1
tc-3
norm-2
ta-1
woman-1
premium-1
song-2
very-1
upgrdcentre-1
fav-1
lingerie-1
minded-1
fall-1
sony-5
pt2-1
condition-1
3mins-2
tones2you-2
ac/u/bootydelious-1
joined-2
large-1
-4-1
harry-1
buddys-1
ten-1
burger-2
rate-13
titles-3
pass-3
further-3
114/14-3
sue-2
sub-5
0207-2
recd@thirtyeight-1
tattoos-1
outgoing-1
69101-1
9153-1
closingdate04/09/02-1
80182-2
hours-2
pub-1
strong-1
+447797706009-2
fantasies-4
search-2
85023-7
sender-1
com/newsletter-1
pics-11
airport-1
pick-1
£150-7
camcorder-7
via-1
followed-3
vid-1
tkls-1
m8s-2
texts-11
vip-3
2wt-2
cc100p/min-1
cashto-2
+449071512431-1
polyph-2
takes-3
finally-1
x49-1
bcm4284-1
6-4
84199-2
more-23
door-1
knows-1
80878-1
company-2
flag-4
50/week-3
cr01327bt-2
of£2000-2
karaoke-1
town-1
include-1
maniac-1
5226-1
del-3
v-4
male-1
2yr-1
sphosting-1
compare-2
libertines-1
83355-3
prods-1
f=-2
10am-9pm-1
numbers-5
ave-1
r836-1
87066-8
information-3
needs-1
sipix-3
11mths-3
eh74rr-1
14thmarch-1
2nights-1
upto-2
prepayment-1
rude-3
soundtrack-1
fa-4
*****-1
freefone-2
fm-1
a-252
strong-buy-1
register-1
anytime-7
2exit-1
callback-1
[sic]-1
xxx-10
dream-2
replied-1
help-15
don't-7
free-message-1
soon-2
held-1
its-4
saucy-3
25-3
thnq-1
20-6
wrc-1
22-1
28-3
125gift-2
late-1
box334sk38ch-1
bout-1
haven't-1
20m12aq-1
someone-10
somebody-2
yo-2
ya-1
35p-1
rwm-1
arsenal-1
yes-434-1
you've-4
yr-10
ldnw15h-2
instructions-2
mystery-1
box97n7qp-3
505060-1
2c-2
done-2
everyone-2
england-5
energy-2
hard-3
duchess-1
connect-2
g696ga-2
idew-1
really-1
deals-1
flower-2
4041-1
uk/expressoffer-2
88222-2
7-1
18yrs-2
£2000-15
darling-2
nasdaq-1
passes-1
recd-3
members-2
put-1
loads-1
4*lux-1
85233-1
wither-1
69669-1
82242-2
dont-10
fromm-2
number-16
fancy-8
celeb-3
smsservices-1
msgs@150p-2
unredeemed-2
slower-1
miss-6
moan-1
guess-5
"-1
sonyericsson-4
j89-1
18+-12
logo&pic-1
80062-5
ltdhelpdesk-1
statement-7
"divorce-1
mobiles-7
80086-2
starwars3-3
tom-1
park-1
part-8
jordan-4
$5-1
std-6
king-3
b-5
861-1
double-9
i-31
store-7
club4mobiles-1
ages-1
07/11/04-2
selling-1
150ppmpobox10183bhamb64xe-1
sell-1
nights-1
self-2
80082-2
scotland-1
2stoptxt-1
also-2
play-11
hotel-2
singles-4
quote-1
kl341-1
chart-1
jst-1
most-1
unsub-6
meet+greet-1
doggin-1
hubby-1
tddnewsletter@emc1-1
mobile-73
10am-1
exp-1
rtf-1
gold-1
fone-2
fink-1
wkent/150p16+-2
cds-4
find-18
costing-2
b/tooth-1
believe-1
jsco-2
mcfly-all-1
cr9-6
e14-1
flights-5
randy-2
8-1
call2optout=j5q-1
hit-2
banned-1
cheaper-1
rings-1
fastest-1
during-1
w14rg-1
him-1
61610-2
skillgame-2
remove-2
mad1-1
4txt/120p-1
x-10
wrote-1
88088-1
picsfree1-2
set-1
devils-1
naked-1
sex-5
86021-5
see-10
ibhltd-2
are-55
69876-1
yo-here-1
close-2
aberdeen-1
ls278bb-1
eire-2
movie-1
wow-1
currently-8
please-39
nokia/150p-1
2optout/d3wv-1
fans-1
won-50
various-1
m221bp-1
sptv-2
conditions-3
available-2
recently-1
opt-out-3
31p-2
mailbox-2
2moro-1
c-13
info@txt82228-1
last-8
video/pic-1
doublemins-1
custcare-8
supply-3
loan-3
community-2
simply-2
sing-2
85222-1
java-2
meetins-1
claimcode-1
s89-1
pc-4
secret-7
ac/smsrewards-1
pg-1
collected-2
ph-2
shortcode-1
po-24
pm-1
flight-1
gay-4
packs-1
wet-2
uk/wrc-1
else-1
bcm1896wc1n3xx-2
representative-6
chatter-1
look-1
since-1
straight-2
bill-1
while-3
£1million-1
smart-2
fun-5
bx420-ip4-5we-3
videosound-1
31-1
sw7-1
real-9
pound-4
logo/pic-1
£50award-1
themob-4
ready-2
coca-cola-1
panasonic-1
com1win150ppmx3age16-3
pobox84-5
james-1
free2day-2
shag-1
advise-3
csh11-2
used-1
1000s-2
txtin-3
optin-1
yesterday-1
alert-3
000-24
user-3
euro-2
msg@150p-3
my-tone-1
sleepingwith-1
moby-2
wicklow-2
entry-20
83332-1
breathe1-1
ldn-8
lkpobox177hp51fl-1
questions-4
world-1
150p/wk-1
£1/minmobsmorelkpobox177hp51fl-1
readers-1
guaranteed-33
havin-1
pobox334-2
snap-1
cum-5
easter-1
bin-1
83021-1
150p/day-2
bid-6
unlimited-5
game-3
biz-4
wings-1
call2optout/f4q=-1
knock-2
d-2
collect-15
50%-1
tscs-2
1327-6
lastest-1
some-5
back-17
b4-5
urgent-42
40533-1
0870-6
delivered-3
poly/200p-1
box39822-2
per-34
dating-11
either-7
phone_number-300
be-34
300-2
reach-5
lose-1
refused-3
bt-4
9am-11pm-2
feb-1
2/2-1
2/3-1
bx-1
by-27
pobox36504w45wq-5
box245c2150pm-1
89080-2
220cm2-1
messaging-2
complimentary-8
wanna-8
into-5
within-4
150p/min-2
services-13
81618--2
sports-2
computer-1
arcade-2
renewal-1
u4-3
question-3
fast-1
69911-1
txtx-1
bored-2
registered-3
pobox45w2tg150p-2
boys-2
1-month-1
link-3
11mths+-3
line-24
info-7
frnd-1
caller-11
up-15
us-6
ur-104
uk-41
077xxx-1
ordered-2
£500-15
chat-31
rally-2
£12-1
50perwksub-3
bx420-1
nick-1
draw-28
romcapspam-1
land-15
e-7
£50-£500-1
call2optout/n9dx-1
age-8
svc-1
gr8-5
2003-5
2000-1
2006-1
2007-1
2004-4
2005-3
petticoatdreams-1
hello-4
ppt150x3+normal-1
code-16
calls£1/minmobsmorelkpobox177hp51fl-2
results-3
1/08/03-1
ringtone-get-2
go-20
gossip-1
issues-1
barbie"-1
-pls-1
send-48
chaps-1
soiree-1
msg150p-1
gravel-1
sent-8
g2-1
logos-1
nichols-1
spook-3
call2optout/j-1
arrange-2
texts/weekend-1
gender-2
gettin-2
eve-3
try-6
getzed-7
goodies-1
video-17
download-2
deltomorrow-1
28thfeb-1
click-4
row/w1jhl-4
networks-1
access-4
waiting-11
1stchoice-1
3g-2
9th-1
adrian-1
growing-1
let-4
sexy-15
extreme-1
great-4
receive-21
gent-2
survey-1
wid-2
claim-74
win-46
app-3
private-9
wiv-2
names-2
3uz-2
apply-20
69855-1
cha-2
use-5
from-89
&-64
frog-1
next-12
camera-20
sms-08718727870-2
okmail-1
txts-8
sort-1
babe-4
1/2-3
1/1-1
untamed-1
shagged-2
halloween-2
digits-1
info@vipclub4u-1
name2-2
prizes-1
name1-2
baby-1
billed-1
subscription-1
customer-32
uk/ow-1
account-9
0808-2
britney-2
f-3
this-54
0800-9
prompts-1
wildest-1
0578-2
t&csbcm4235wc1n3xx-2
meet-5
toclaim-2
$350-1
high-2
simonwatson5120-1
textand-1
summers-1
united-1
six-2
82277-5
sim-2
sir-1
stop-73
mobno-2
£1450-3
50gbp/mtmsg18-2
collection-14
rcvd-6
4msgs-1
helpline-2
lines-1
ibiza-2
claire-2
allow-1
9ae-2
6031-1
81303-3
146tf150p-1
45239-2
stamped-2
85555-1
ladies-2
visionsms-1
02/09/03-1
cruise-2
horny-4
freemsg-10
perfect-1
lounge-1
le-1
chosen-1
t91-1
tyrone-4
willing-1
sounds-1
choose-7
orange-17
holiday-19
outbid-1
cust-3
m95-2
nokia-46
oranges-1
021-1
stewartsize-1
day-10
worlds-1
7250-1
box1146-1
dbuk-1
trav-1
69200-1
36504-4
identifier-7
suprman-3
activate-5
alertfrom-1
bluetooth-5
croydon-6
our-51
80-1
sexual-1
special-10
85-2
secretly-2
83222-3
rply-4
87021-3
b4utele-1
may-6
ref-3
23f-1
red-1
await-10
ipod-8
stopbcm-1
week-stop-2
completely-1
doubles-1
[colour=red]text[/colour]txtstar-1
forwarded-4
hunks-1
g-8
32/f-1
could-5
keep-4
knickers-1
ltd-10
rcv-2
nokia6650-2
finest-1
bitch-1
69888nyt-1
landlineonly-1
quality-1
you're-2
bonus-18
privacy-1
bears-1
guys-4
their-1
yourinclusive-1
final-13
2end-2
150p/rcvd-1
box139-1
biggest-2
orno-1
1er-1
unsubscribe-13
box420-1
july-1
mobsi-1
herself-2
150ppm-24
free-send-2
beg-1
150p-16
lover-2
r*reveal-5
clip-1
54-1
150pm-4
tonight-2
hava-1
have-90
10p/min-5
need-6
afraid-1
07xxxxxxxxx-2
congrats-6
mid-2
"suppliers"-1
netcollex-2
326-2
82468-2
which-4
=-5
gamestar-1
stopcost-1
expires-7
rodds1-1
gbp/sms-1
connected-1
06-1
42478-1
fones-1
why-8
smartcall-1
request-1
sf-1
you'll-1
dena-1
fact-1
selection-3
chances-2
text-79
postcode-2
bedroom-1
chgs-1
filthy-2
pleased-3
unbreakable-1
mono#-1
highest-1
winner-13
credited-1
hmv1-1
should-6
resubmit-1
thousands-1
hope-4
jackpot-1
costa-3
lucozade-2
87239-3
nikiyu4-1
flirting-1
lucky-4
***********-2
121-3
123-1
canary-1
borin-1
87070-1
monoc-1
dps-1
4txt/ú1-1
married-2
calling-2
cdgt-1
monos-1
stuff-1
gbp-1
won't-2
fixed-1
24hrs-2
europe-1
noline-2
national-9
pocketbabe-3
banneduk-1
£250-11
prizeswith-1
violet-2
luv-5
lux-1
gbp1-1
complementary-1
birds-1
5p/min-1
calls£1/minmoremobsemspobox45po139wa-2
email-2
bought-1
ken-1
ends-3
explosive-1
27/6/03-1
2px-1
dogging-11
zouk-1
050703-2
smsco-1
restrictions-1
instant-1
career-1
minutes-3
taking-1
etc-5
400mins-1
'help'-3
jersey-1
co-35
1da-1
cc-5
removal-1
cd-4
subscribe-1
maximize-6
cs-8
150p/msgrcvdhg/suite342/2lands/row/w1j6hl-3
no-434-1
orig-1
hg/suite342/2lands-7
pin-1
£5000-10
special-call-5
wa14-1
bbc-1
call2optout/lf56-1
quiz-13
hottest-1
"stop-1
liverpool-2
hmv-7
rpl-1
rg21-1
improved-2
w45wq-3
textbuddy-2
wins-1
bangbabes-1
//gotbabes-1
info@ringtoneking-1
will-29
tsandcs-2
+std-1
wild-1
bray-2
valid12hrs-3
//doit-1
2stop-1
50p/wk-1
box385-1
'uptown-1
vu-2
partner-4
-sub-2
poly3-1
cross-1
member-4
matthew-1
largest-4
poly#-1
pobox12n146tf150p-1
http-12
lookin-1
suzy-1
promo-1
ts&cs-8
88066-3
spree-4
php-2
login-1
off-2
center-2
records-1
polys-4
colour-9
well-3
0825-1
thought-1
82324-1
redeemable-1
350-1
polyc-1
latest-20
shracomorsglsuplt-1
newest-2
half-7
mfl-1
tcs-2
rgds-1
rooms-1
mths-1
nokias-2
web-2
console-1
ads-2
wed-1
sky-3
txtauction-5
realize-1
book-2
hg/suite342/2lands/row/w1j6hl-3
latests-1
gmw-1
kick-2
details-3
24/10/04-1
re-sub-1
tc-llc-1
five-3
know-20
press-1
immediately-4
password-3
1st4terms-1
rct'-1
motorola-7
like-8
sk3-1
pobox114/14tcr/w1-1
become-1
page-1
because-2
gaytextbuddy-2
113-2
home-2
matrix3-3
charges-1
slide-1
02/06/03-4
does-3
passion-1
rstm-1
symbol-1
sppok-1
neo69-1
expiry-1
filth-1
about-7
getting-4
monthly-1
warranty-1
previously-3
pobox365o4w45wq-1
49/month-1
help08700621170150p-1
call09050000327-2
female-1
artists-1
e-tlp-3
janinexx-1
150p/msg-14
£800-8
poboxox36504w45wq-1
awarded-26
lost-2
mad2-1
flyng-1
rcd-1
yrs-3
3pound-1
vat-1
m8-1
buy-1
rodger-1
chatting-1
86688-15
brand-3
but-4
delivery-14
4-tc-2
hi-14
bubbletext-1
hl-5
hlp-1
£1000-23
made-1
wish-2
official-2
stories-1
u've-3
chrgd@50p-1
hvae-1
4u-3
replying-4
83110-1
handset-1
pic-8
buffy-1
pix-3
rgent-1
nookii-1
1yf-1
inc-5
incredible-1
4t&ctxt-2
44-1
40-2
other-4
4*-13
84-1
granite-1
out-40
box403-1
sunshine-7
star-2
sw73ss-1
class-2
june-1
88800-1
bundle-1
stay-2
8552-4
chance-21
16+only-2
kinda-1
came-1
8007-17
friends-4
ghost-2
bcm-1
itcould-1
using-1
10/06/03-1
phb1-1
“-1
