-0.28112050296103940021
all-0.42078676430105158839
code-0.99042049782633786019
todays-0.96551883308714918758
msgs-0.82192480588475684510
mp3-0.90647887323943661972
go-0.44682032768675367954
content-0.98612658792065968352
tv-0.68293718166383701188
send-0.76932731673788960941
to-0.74889457761228764254
charge-0.86598493003229278794
sorry-0.14867861763075217150
worth-0.94170666042373873348
sent-0.55173596228032576083
@-0.73470319634703196347
choice-0.90647887323943661972
every-0.84780592673776503815
sony-0.96997829756450446104
minute-0.76364499288087327957
eve-0.68293718166383701188
try-0.58948525370947059899
enjoy-0.69518254482609634911
phones-0.97837039610840861708
direct-0.98102278789726392804
rate-0.98823584994802985920
cost-0.92083174360930942389
video-0.99097891457140786899
pass-0.76364499288087327955
further-0.95094562647754137116
click-0.96275243081525804039
even-0.39858797299808013871
what-0.36612387115124795563
sub-0.96997829756450446104
+-0.95094562647754137117
selected-0.97180174398852440450
pleased-0.90647887323943661972
access-0.92817998269397173349
waiting-0.72471542052247973138
new-0.86851523721235874631
net-0.90225985532439858688
join-0.92308031774051191527
here-0.32920716112531969309
let-0.33634700810033969166
address-0.72103965942191351109
alone-0.79496047430830039526
sexy-0.91503639672429481345
box-0.99384790235706873548
great-0.25378548895899053627
auction-0.98476038925270824407
pics-0.93427998310810810812
credit-0.92817998269397173345
i'm-0.14008358001044750130
fantastic-0.90647887323943661972
love-0.29348817413510062625
extra-0.83791173024345788309
win-0.97379154277293897850
app-0.95094562647754137116
private-0.98309572301425661914
texts-0.92215912051268691711
1st-0.93211790765036633157
apply-0.98476038925270824407
txt-0.99225766330681729846
use-0.57378218386705655801
from-0.84810598881834549419
takes-0.73470319634703196347
&-0.97870116045886121061
visit-0.86598493003229278795
next-0.75619786159088238750
live-0.91956564953781930226
camera-0.99232168737858089981
call-0.89815662749778774721
until-0.66880039903566381246
6-0.51853045439896873992
msg-0.72820936052393376285
tell-0.47647250436791139802
today-0.49412959769436110652
more-0.75587736677628219531
babe-0.35001087665869045029
award-0.99042049782633786019
phone-0.80395185101067454008
must-0.60324304058487205923
me-0.20854317878832765517
account-0.76364499288087327955
word-0.94170666042373873346
f-0.95094562647754137116
this-0.66982746658032286413
work-0.22972587093089663049
tc-0.90647887323943661972
del-0.95094562647754137116
can-0.35644661054497120071
v-0.42479044287505775196
following-0.95094562647754137116
meet-0.37434274812712298171
arrive-0.96997829756450446104
my-0.090265846663066878912
give-0.35001087665869045029
heard-0.79496047430830039526
numbers-0.94170666042373873344
want-0.51853045439896873993
end-0.78041359848317827064
nyt-0.70787505499340079191
1-0.83218920443859319165
till-0.53278145695364238411
hot-0.93427998310810810812
answer-0.81160151324085750312
tried-0.93564644310912967631
rude-0.95094562647754137116
may-0.55568986358141944396
after-0.25378548895899053627
date-0.84971708789136175027
guys-0.55173596228032576083
a-0.69846257202656262112
anytime-0.95765666184848227189
q-0.92817998269397173349
so-0.29953459509773502948
enter-0.92817998269397173345
order-0.92817998269397173350
help-0.82895414734672849046
don't-0.32722254503195816385
over-0.65413151743063319444
years-0.83404917061611374405
customer-0.97180174398852440452
still-0.23702896202233287174
its-0.15679586815114381075
before-0.41792207792207792207
25-0.95094562647754137116
20-0.92817998269397173345
how-0.16170041706446912215
offers-0.98102278789726392804
choose-0.88288782629144783256
orange-0.96486648559032064624
weeks-0.88983519522176750362
holiday-0.93170181640863098865
then-0.24770518618300779370
good-0.29026555058449992784
break-0.63798572561459159398
you've-0.78689326323511431711
they-0.48909491602705372749
half-0.70420157559084656746
not-0.33754493701665887918
yr-0.96997829756450446104
day-0.33374126236750948954
name-0.72103965942191351108
each-0.93780183180682764360
luck-0.91503639672429481342
activate-0.96997829756450446104
receipt-0.90647887323943661972
year-0.54783792986040177050
2day-0.86598493003229278794
our-0.88935492261672519181
girl-0.57634100474612698127
saturday-0.73470319634703196347
special-0.72103965942191351109
out-0.63277947104512830598
network-0.96036767339142891251
rply-0.83791173024345788309
sms-0.92817998269397173350
looking-0.73470319634703196345
re-0.80153432300488193681
got-0.10928479250152822115
correct-0.81160151324085750316
shows-0.95878438772469957295
goto-0.96275243081525804039
free-0.96492336671281836623
card-0.73470319634703196347
care-0.41127228576905872579
g-0.82454679392735891360
starts-0.79496047430830039526
could-0.47298489035216650008
messages-0.88983519522176750358
days-0.71112093254516325064
keep-0.40483079632658195999
place-0.40483079632658195999
first-0.38666266145989786723
dont-0.41792207792207792207
number-0.72610351149344239176
fancy-0.94515015786768485202
one-0.29909445786971877738
xx-0.76364499288087327957
message-0.76796672576026183009
miss-0.43675352877307274701
tomorrow-0.44244971715901948459
city-0.90647887323943661972
guess-0.57378218386705655801
service-0.99594403088400579889
top-0.94382275967872935656
2-0.79600503427422546582
final-0.97674527200560354890
friend-0.61765834932821497121
that-0.25783603615152874815
part-0.82454679392735891360
jordan-0.96275243081525804039
king-0.90647887323943661972
b-0.45308628069384996619
16-0.99232168737858089981
double-0.93564644310912967631
r-0.48277055877397465783
store-0.95765666184848227189
were-0.35001087665869045029
and-0.51210948767169612397
sam-0.95094562647754137116
have-0.64865954444668413627
ans-0.88983519522176750362
need-0.27347667204895045465
mins-0.94515015786768485205
any-0.52501192239150623729
min-0.82895414734672849048
--0.69915743733771395265
take-0.48993771626297577855
which-0.43188833713595490536
brand-0.90647887323943661972
play-0.85556146372117755112
price-0.94170666042373873348
who-0.82794260342850421948
reach-0.61765834932821497119
forwarded-0.86598493003229278794
services-0.98823584994802985920
why-0.51338092769114186575
mobile-0.98332342673442222205
m-0.84971708789136175027
sale-0.86598493003229278795
points-0.93780183180682764360
hear-0.49219944937289691035
shop-0.81160151324085750312
text-0.91569294163412912244
cheap-0.82895414734672849046
find-0.78424045491470349309
daily-0.95094562647754137116
weekends-0.90647887323943661972
should-0.39253476457672603074
only-0.80303786501935155800
going-0.17844567055757340505
hope-0.27251556082482957191
do-0.27858577463813283467
get-0.66045848262427383726
stop-0.94966931323878979965
lucky-0.74173101302293419386
reply-0.93427998310810810807
x-0.79171382177828076564
xmas-0.82895414734672849047
reference-0.86598493003229278795
ends-0.76364499288087327955
sex-0.96997829756450446104
see-0.42064259757914825756
are-0.56198719739883658901
best-0.48001193317422434368
luv-0.60607202049118577668
currently-0.96275243081525804037
please-0.84281569828350390846
3-0.69876229177653007414
future-0.90647887323943661972
landline-0.99268464657147893530
between-0.70787505499340079192
conditions-0.95094562647754137116
we-0.50833267514414343261
terms-0.95094562647754137113
comp-0.97837039610840861708
wk-0.93658820533343034889
news-0.86598493003229278794
c-0.63637469956493960876
last-0.57634100474612698128
country-0.92817998269397173349
invited-0.83791173024345788309
etc-0.91503639672429481342
s-0.53278145695364238409
com-0.94820951918743716851
sky-0.95094562647754137116
loan-0.79496047430830039526
2nd-0.91720108308393900527
speak-0.75252850043846828414
been-0.73781015947419371274
secret-0.91875356880659107596
entered-0.88576933663638865952
po-0.98726798588740604387
life-0.28347427766032417195
shopping-0.66535717977876563634
gay-0.96275243081525804039
xxx-0.82192480588475684511
cash-0.97485610421084519842
n-0.16656314699792960662
will-0.45885534467499262464
receive-0.96446309299537592054
while-0.53278145695364238411
many-0.36312344843150530353
fun-0.72917610803951781020
is-0.57853157171689761028
it-0.23832124779433546709
player-0.96997829756450446104
someone-0.64221282030813442964
im-0.37005519779208831646
in-0.36059052581449421520
if-0.33489436986158809451
make-0.48451085933677118229
member-0.96275243081525804039
week-0.85361761922514410255
user-0.95094562647754137116
kept-0.86598493003229278795
i-0.11438091350629933177
colour-0.95094562647754137113
congrats-0.90647887323943661974
well-0.19905975504144500804
contact-0.96583600596840859588
the-0.53699818823305044341
yours-0.92215912051268691711
latest-0.97731345096729128070
summer-0.96275243081525804039
just-0.64355935414605393344
being-0.45736213757816941444
money-0.31579980372914622179
thanks-0.63990021331212263639
questions-0.83791173024345788309
yes-0.52319531758075005419
now-0.81937549688041530960
cup-0.91503639672429481342
had-0.46700286616115807422
4-0.79310199138101005546
easy-0.80438508784459362949
cum-0.86598493003229278795
has-0.66726568979817528338
match-0.89600445496310733677
real-0.78424045491470349311
unlimited-0.91503639672429481342
game-0.70787505499340079191
five-0.86598493003229278795
know-0.43333647540431720553
immediately-0.83791173024345788309
cd-0.96275243081525804039
like-0.24889782659138371104
gift-0.91503639672429481347
pounds-0.98726798588740604387
50-0.98612658792065968352
collect-0.96997829756450446104
either-0.83404917061611374405
night-0.25630201903548245788
www-0.99714236529523153730
some-0.29026555058449992783
back-0.56667840643062835360
competition-0.90647887323943661972
b4-0.86598493003229278795
urgent-0.98191011725731223574
dear-0.49678614533920902687
thinks-0.91875356880659107596
for-0.70925897261610730124
per-0.94820951918743716851
does-0.48001193317422434369
t-0.95950341537460696084
phone_number-0.99896936659506041001
be-0.48531355623963166346
pls-0.30108532934131736526
txting-0.97485610421084519841
asap-0.95094562647754137113
bt-0.66535717977876563634
by-0.66982746658032286415
on-0.70529960987156445885
about-0.31145093050908387025
ok-0.11546880045929168610
getting-0.41792207792207792207
of-0.55867766025258990159
plus-0.76364499288087327954
wanna-0.71112093254516325064
or-0.82864867984674057335
2nite-0.89600445496310733677
into-0.59491237151519633218
within-0.83791173024345788309
your-0.78778152540528778153
log-0.76364499288087327955
her-0.19505394593284034428
area-0.91875356880659107596
there-0.29830546182654158478
question-0.61765834932821497121
hey-0.34625979168460015494
start-0.62765749951238541057
music-0.97485610421084519841
yrs-0.82895414734672849046
was-0.19082973575596565301
hard-0.68293718166383701188
offer-0.96446309299537592054
registered-0.86598493003229278795
but-0.078124810332479576598
delivery-0.98906695938529088913
hi-0.53699818823305044341
link-0.95094562647754137116
line-0.96275243081525804039
trying-0.80699434616086084261
with-0.70062001195830192115
info-0.97837039610840861708
congratulations-0.98612658792065968352
caller-0.98612658792065968352
up-0.33547391685084024853
us-0.54020480107436629174
ur-0.81258285542244732459
flirt-0.89600445496310733677
u've-0.95094562647754137116
minutes-0.49219944937289691035
replying-0.92817998269397173349
cinema-0.82895414734672849046
pic-0.91180845788765318411
am-0.32781541282534508226
an-0.57535414660981983221
pix-0.90647887323943661972
as-0.57245614577854778332
at-0.32243468722643519347
chat-0.96159703880781168668
trip-0.70787505499340079191
password-0.90647887323943661972
no-0.58463672849191537153
when-0.26221129201914102431
other-0.47126015962510068097
5-0.54020480107436629174
details-0.65969659696596965970
you-0.48870960087323809976
10-0.77898813846526264828
draw-0.97837039610840861710
sunshine-0.97837039610840861708
welcome-0.92817998269397173345
update-0.97263285156893993514
chance-0.94432799530477068835
important-0.82192480588475684510
friends-0.43188833713595490536
e-0.43396008322416583185
calls-0.86598493003229278796
dvd-0.97485610421084519841
age-0.96275243081525804037
4u-0.82895414734672849046
gr8-0.80153432300488193681
u-0.52807443939824013624
time-0.33374126236750948954
hello-0.48001193317422434368
